Class 2: Manipulating Data
…
What is the tidyverse?

https://www.tidyverse.org/

Subsetting

In general lets stick with the tidyverse way of manipulating data to do all of the above. The tidyverse has a bunch of functions to help you work with data. Lets start with two fundamental ones to help you select certain columns or certain rowsselect() and filter().

select() gets columns, and can be used to order columns

library(tidyverse) # make sure this is loaded
select(qog, cname, year, gle_pop)

## # A tibble: 7,770 x 3
##    cname        year gle_pop
##    <chr>       <int>   <dbl>
##  1 Afghanistan  1981   15862
##  2 Afghanistan  1982   15549
##  3 Afghanistan  1983   15177
##  4 Afghanistan  1984   14814
##  5 Afghanistan  1985   14519
##  6 Afghanistan  1986   14300
##  7 Afghanistan  1987   14165
##  8 Afghanistan  1988   14162
##  9 Afghanistan  1989   14346
## 10 Afghanistan  1990   14754
## # ... with 7,760 more rows

select(qog, starts_with("c"))

## # A tibble: 7,770 x 4
##    ccode cname       ccodewb copy_code
##    <int> <chr>         <int>     <int>
##  1     4 Afghanistan       4         4
##  2     4 Afghanistan       4         4
##  3     4 Afghanistan       4         4
##  4     4 Afghanistan       4         4
##  5     4 Afghanistan       4         4
##  6     4 Afghanistan       4         4
##  7     4 Afghanistan       4         4
##  8     4 Afghanistan       4         4
##  9     4 Afghanistan       4         4
## 10     4 Afghanistan       4         4
## # ... with 7,760 more rows

select(qog, starts_with("c"), contains("gdp"))

## # A tibble: 7,770 x 6
##    ccode cname       ccodewb copy_code wdi_gdpcapcon2010 wdi_gdpcappppcon
##    <int> <chr>         <int>     <int>             <dbl>             <dbl>
##  1     4 Afghanistan       4         4                NA                NA
##  2     4 Afghanistan       4         4                NA                NA
##  3     4 Afghanistan       4         4                NA                NA
##  4     4 Afghanistan       4         4                NA                NA
##  5     4 Afghanistan       4         4                NA                NA
##  6     4 Afghanistan       4         4                NA                NA
##  7     4 Afghanistan       4         4                NA                NA
##  8     4 Afghanistan       4         4                NA                NA
##  9     4 Afghanistan       4         4                NA                NA
## 10     4 Afghanistan       4         4                NA                NA
## # ... with 7,760 more rows

select(qog, starts_with("c"), contains("gdp"), gle_pop)

## # A tibble: 7,770 x 7
##    ccode cname ccodewb copy_code wdi_gdpcapcon20 wdi_gdpcappppco gle_pop
##    <int> <chr>   <int>     <int>            <dbl>            <dbl>   <dbl>
##  1     4 Afgh       4         4               NA               NA   15862
##  2     4 Afgh       4         4               NA               NA   15549
##  3     4 Afgh       4         4               NA               NA   15177
##  4     4 Afgh       4         4               NA               NA   14814
##  5     4 Afgh       4         4               NA               NA   14519
##  6     4 Afgh       4         4               NA               NA   14300
##  7     4 Afgh       4         4               NA               NA   14165
##  8     4 Afgh       4         4               NA               NA   14162
##  9     4 Afgh       4         4               NA               NA   14346
## 10     4 Afgh       4         4               NA               NA   14754
## # ... with 7,760 more rows

select(qog, gle_pop, starts_with("c"), contains("gdp"))

## # A tibble: 7,770 x 7
##    gle_pop ccode cname ccodewb copy_code wdi_gdpcapcon20 wdi_gdpcappppco
##      <dbl> <int> <chr>   <int>     <int>            <dbl>            <dbl>
##  1   15862     4 Afgh       4         4               NA               NA
##  2   15549     4 Afgh       4         4               NA               NA
##  3   15177     4 Afgh       4         4               NA               NA
##  4   14814     4 Afgh       4         4               NA               NA
##  5   14519     4 Afgh       4         4               NA               NA
##  6   14300     4 Afgh       4         4               NA               NA
##  7   14165     4 Afgh       4         4               NA               NA
##  8   14162     4 Afgh       4         4               NA               NA
##  9   14346     4 Afgh       4         4               NA               NA
## 10   14754     4 Afgh       4         4               NA               NA
## # ... with 7,760 more rows
…
## Help on topic 'select_helpers' was found in the following
## packages:
## 
##   Package               Library
##   tidyselect            /Library/Frameworks/R.framework/Versions/3.5/Resources/library
##   dplyr                 /Library/Frameworks/R.framework/Versions/3.5/Resources/library
## 
## 
## Using the first match ...

filter() is used to select rows.

filter(qog, cname == "Pakistan")

## # A tibble: 37 x 19
##    ccode cname     year ccodewb gle_pop wdi_expedu wdi_exphpu wdi_expmil
##    <int> <chr>    <int>   <int>   <dbl>      <dbl>      <dbl>      <dbl>
##  1   586 Pakistan  1981     586  83280.       1.97         NA       6.18
##  2   586 Pakistan  1982     586  86187.       2.02         NA       6.77
##  3   586 Pakistan  1983     586  89200        2.00         NA       7.15
##  4   586 Pakistan  1984     586  92300.       2.07         NA       7.07
##  5   586 Pakistan  1985     586  95470.       2.43         NA       7.23
##  6   586 Pakistan  1986     586  98711.       2.68         NA       7.39
##  7   586 Pakistan  1987     586 102012.       2.97         NA       7.60
##  8   586 Pakistan  1988     586 105332.      NA            NA       7.26
##  9   586 Pakistan  1989     586 108621.       2.37         NA       6.89
## 10   586 Pakistan  1990     586 111845.       2.52         NA       7.13
## # ... with 27 more rows, and 11 more variables: wdi_lifexp <dbl>,
## #   wdi_gdpcapcon2010 <dbl>, wdi_gdpcappppcon2011 <dbl>, fh_feb <int>,
## #   fh_ipolity2 <dbl>, test <dbl>, test2 <int>, copy_code <int>,
## #   pakistan <dbl>, is_this_pakistan <chr>, gle_pop_raw <dbl>
…
filter(qog, cname == "Pakistan" | year > 2010)

## # A tibble: 1,500 x 19
##    ccode cname       year ccodewb gle_pop wdi_expedu wdi_exphpu wdi_expmil
##    <int> <chr>      <int>   <int>   <dbl>      <dbl>      <dbl>      <dbl>
##  1     4 Afghanist  2011       4  24988.       3.44       2.08      1.78 
##  2     4 Afghanist  2012       4     NA        2.53       2.92      1.14 
##  3     4 Afghanist  2013       4     NA        3.48       2.65      1.06 
##  4     4 Afghanist  2014       4     NA        3.78       2.93      1.33 
##  5     4 Afghanist  2015       4     NA        3.32      NA         0.993
##  6     4 Afghanist  2016       4     NA       NA         NA         0.892
##  7     4 Afghanist  2017       4     NA       NA         NA        NA    
##  8     8 Albania     2011       8   3216.      NA          2.85      1.53 
##  9     8 Albania     2012       8     NA       NA          2.74      1.49 
## 10     8 Albania     2013       8     NA        3.54       2.84      1.41 
## # ... with 1,490 more rows, and 11 more variables: wdi_lifexp <dbl>,
## #   wdi_gdpcapcon2010 <dbl>, wdi_gdpcappppcon2011 <dbl>, fh_feb <int>,
## #   fh_ipolity2 <dbl>, test <dbl>, test2 <int>, copy_code <int>,
## #   pakistan <dbl>, is_this_pakistan <chr>, gle_pop_raw <dbl>
qog_pakistan <- filter(qog, cname == "Pakistan")

Exercise: Use the filter method to select only rows that are later than year 2010 OR are earlier than 1990.

Exercise: Use the filter method to select only rows where the variable wdi_expmil is not missing. Table the years in the resulting data.frame.

Editing

There are two main functions we care about for editing, mutate() and summarize().

mutate() just creates new variables, and expects/requires them to be the same length as the original data.

mutate(qog, gle_pop_raw = gle_pop * 1000)

## # A tibble: 7,770 x 19
##    ccode cname       year ccodewb gle_pop wdi_expedu wdi_exphpu wdi_expmil
##    <int> <chr>      <int>   <int>   <dbl>      <dbl>      <dbl>      <dbl>
##  1     4 Afghanist  1981       4   15862       1.90         NA         NA
##  2     4 Afghanist  1982       4   15549       1.73         NA         NA
##  3     4 Afghanist  1983       4   15177      NA            NA         NA
##  4     4 Afghanist  1984       4   14814      NA            NA         NA
##  5     4 Afghanist  1985       4   14519      NA            NA         NA
##  6     4 Afghanist  1986       4   14300      NA            NA         NA
##  7     4 Afghanist  1987       4   14165      NA            NA         NA
##  8     4 Afghanist  1988       4   14162      NA            NA         NA
##  9     4 Afghanist  1989       4   14346      NA            NA         NA
## 10     4 Afghanist  1990       4   14754      NA            NA         NA
## # ... with 7,760 more rows, and 11 more variables: wdi_lifexp <dbl>,
## #   wdi_gdpcapcon2010 <dbl>, wdi_gdpcappppcon2011 <dbl>, fh_feb <int>,
## #   fh_ipolity2 <dbl>, test <dbl>, test2 <int>, copy_code <int>,
## #   pakistan <dbl>, is_this_pakistan <chr>, gle_pop_raw <dbl>

mutate(qog, gle_pop_raw = gle_pop * 1000, gle_pop_log = log(gle_pop_raw))

## # A tibble: 7,770 x 20
##    ccode cname       year ccodewb gle_pop wdi_expedu wdi_exphpu wdi_expmil
##    <int> <chr>      <int>   <int>   <dbl>      <dbl>      <dbl>      <dbl>
##  1     4 Afghanist  1981       4   15862       1.90         NA         NA
##  2     4 Afghanist  1982       4   15549       1.73         NA         NA
##  3     4 Afghanist  1983       4   15177      NA            NA         NA
##  4     4 Afghanist  1984       4   14814      NA            NA         NA
##  5     4 Afghanist  1985       4   14519      NA            NA         NA
##  6     4 Afghanist  1986       4   14300      NA            NA         NA
##  7     4 Afghanist  1987       4   14165      NA            NA         NA
##  8     4 Afghanist  1988       4   14162      NA            NA         NA
##  9     4 Afghanist  1989       4   14346      NA            NA         NA
## 10     4 Afghanist  1990       4   14754      NA            NA         NA
## # ... with 7,760 more rows, and 12 more variables: wdi_lifexp <dbl>,
## #   wdi_gdpcapcon2010 <dbl>, wdi_gdpcappppcon2011 <dbl>, fh_feb <int>,
## #   fh_ipolity2 <dbl>, test <dbl>, test2 <int>, copy_code <int>,
## #   pakistan <dbl>, is_this_pakistan <chr>, gle_pop_raw <dbl>,
## #   gle_pop_log <dbl>

qog_bigger <- mutate(qog, gle_pop_raw = gle_pop * 1000, gle_pop_log = log(gle_pop_raw))
select(qog_bigger, starts_with("gle_pop"))

## # A tibble: 7,770 x 3
##    gle_pop gle_pop_raw gle_pop_log
##      <dbl>       <dbl>       <dbl>
##  1   15862    15862000        16.6
##  2   15549    15549000        16.6
##  3   15177    15177000        16.5
##  4   14814    14814000        16.5
##  5   14519    14519000        16.5
##  6   14300    14300000        16.5
##  7   14165    14165000        16.5
##  8   14162    14162000        16.5
##  9   14346    14346000        16.5
## 10   14754    14754000        16.5
## # ... with 7,760 more rows
…
## [1] 1999

qog$year %>% median

## [1] 1999

qog$year %>% median

## [1] 1999

# easy to confuse data name with the variable names
select(qog, cname, year, wdi_expedu)

## # A tibble: 7,770 x 3
##    cname        year wdi_expedu
##    <chr>       <int>      <dbl>
##  1 Afghanistan  1981       1.90
##  2 Afghanistan  1982       1.73
##  3 Afghanistan  1983      NA   
##  4 Afghanistan  1984      NA   
##  5 Afghanistan  1985      NA   
##  6 Afghanistan  1986      NA   
##  7 Afghanistan  1987      NA   
##  8 Afghanistan  1988      NA   
##  9 Afghanistan  1989      NA   
## 10 Afghanistan  1990      NA   
## # ... with 7,760 more rows

# pipes make it clearer
qog %>% select(cname, year, wdi_expedu)

## # A tibble: 7,770 x 3
##    cname        year wdi_expedu
##    <chr>       <int>      <dbl>
##  1 Afghanistan  1981       1.90
##  2 Afghanistan  1982       1.73
##  3 Afghanistan  1983      NA   
##  4 Afghanistan  1984      NA   
##  5 Afghanistan  1985      NA   
##  6 Afghanistan  1986      NA   
##  7 Afghanistan  1987      NA   
##  8 Afghanistan  1988      NA   
##  9 Afghanistan  1989      NA   
## 10 Afghanistan  1990      NA   
## # ... with 7,760 more rows

Looks a little better! But now lets see what the real power of the pipes arechaining together commands.

Lets get only expenditure variables, the country name, and the year for Pakistan. We could use traditional subsetting:

qog[qog$cname == "Pakistan", c("cname", "year", "wdi_exphpu", "wdi_expedu", "wdi_expmil")] # looks fine

## # A tibble: 37 x 5
##    cname     year wdi_exphpu wdi_expedu wdi_expmil
##    <chr>    <int>      <dbl>      <dbl>      <dbl>
##  1 Pakistan  1981         NA       1.97       6.18
##  2 Pakistan  1982         NA       2.02       6.77
##  3 Pakistan  1983         NA       2.00       7.15
##  4 Pakistan  1984         NA       2.07       7.07
##  5 Pakistan  1985         NA       2.43       7.23
##  6 Pakistan  1986         NA       2.68       7.39
##  7 Pakistan  1987         NA       2.97       7.60
##  8 Pakistan  1988         NA      NA          7.26
##  9 Pakistan  1989         NA       2.37       6.89
## 10 Pakistan  1990         NA       2.52       7.13
## # ... with 27 more rows

We can also use the tidyverse without piping one of two ways. First:

qog_pk <- filter(qog, cname == "Pakistan")
select(qog_pk, cname, year, contains("wdi_exp"))

## # A tibble: 37 x 5
##    cname     year wdi_expedu wdi_exphpu wdi_expmil
##    <chr>    <int>      <dbl>      <dbl>      <dbl>
##  1 Pakistan  1981       1.97         NA       6.18
##  2 Pakistan  1982       2.02         NA       6.77
##  3 Pakistan  1983       2.00         NA       7.15
##  4 Pakistan  1984       2.07         NA       7.07
##  5 Pakistan  1985       2.43         NA       7.23
##  6 Pakistan  1986       2.68         NA       7.39
##  7 Pakistan  1987       2.97         NA       7.60
##  8 Pakistan  1988      NA            NA       7.26
##  9 Pakistan  1989       2.37         NA       6.89
## 10 Pakistan  1990       2.52         NA       7.13
## # ... with 27 more rows

Second, all at once, with nested functions:

select(filter(qog, cname == "Pakistan"), cname, year, contains("wdi_exp"))

## # A tibble: 37 x 5
##    cname     year wdi_expedu wdi_exphpu wdi_expmil
##    <chr>    <int>      <dbl>      <dbl>      <dbl>
##  1 Pakistan  1981       1.97         NA       6.18
##  2 Pakistan  1982       2.02         NA       6.77
##  3 Pakistan  1983       2.00         NA       7.15
##  4 Pakistan  1984       2.07         NA       7.07
##  5 Pakistan  1985       2.43         NA       7.23
##  6 Pakistan  1986       2.68         NA       7.39
##  7 Pakistan  1987       2.97         NA       7.60
##  8 Pakistan  1988      NA            NA       7.26
##  9 Pakistan  1989       2.37         NA       6.89
## 10 Pakistan  1990       2.52         NA       7.13
## # ... with 27 more rows

Or using pipes:

qog %>%
  filter(cname == "Pakistan") %>%
  select(cname, year, contains("wdi_exp"))

## # A tibble: 37 x 5
##    cname     year wdi_expedu wdi_exphpu wdi_expmil
##    <chr>    <int>      <dbl>      <dbl>      <dbl>
##  1 Pakistan  1981       1.97         NA       6.18
##  2 Pakistan  1982       2.02         NA       6.77
##  3 Pakistan  1983       2.00         NA       7.15
##  4 Pakistan  1984       2.07         NA       7.07
##  5 Pakistan  1985       2.43         NA       7.23
##  6 Pakistan  1986       2.68         NA       7.39
##  7 Pakistan  1987       2.97         NA       7.60
##  8 Pakistan  1988      NA            NA       7.26
##  9 Pakistan  1989       2.37         NA       6.89
## 10 Pakistan  1990       2.52         NA       7.13
## # ... with 27 more rows
…
We can also do an inner_join or a full_join. Inner join only keeps rows from both datasets that are matches, and full_join keeps all rows from both datasets.

Exercise: Do an inner join of these two datasets. How many NAs in the continent variable should there be?

Grouping

The last topic to cover here is grouping. Grouping is really useful because it allows you to apply functions, create mutations, or summarize data for different subcategories of your data. I use grouping all the time.

qog_m <- left_join(qog, cont, by = c("ccode" = "iso3n"))
qog_m %>%
  group_by(continent)

## # A tibble: 7,770 x 20
## # Groups:   continent [6]
##    ccode cname       year ccodewb gle_pop wdi_expedu wdi_exphpu wdi_expmil
##    <int> <chr>      <int>   <int>   <dbl>      <dbl>      <dbl>      <dbl>
##  1     4 Afghanist  1981       4   15862       1.90         NA         NA
##  2     4 Afghanist  1982       4   15549       1.73         NA         NA
##  3     4 Afghanist  1983       4   15177      NA            NA         NA
##  4     4 Afghanist  1984       4   14814      NA            NA         NA
##  5     4 Afghanist  1985       4   14519      NA            NA         NA
##  6     4 Afghanist  1986       4   14300      NA            NA         NA
##  7     4 Afghanist  1987       4   14165      NA            NA         NA
##  8     4 Afghanist  1988       4   14162      NA            NA         NA
##  9     4 Afghanist  1989       4   14346      NA            NA         NA
## 10     4 Afghanist  1990       4   14754      NA            NA         NA
## # ... with 7,760 more rows, and 12 more variables: wdi_lifexp <dbl>,
## #   wdi_gdpcapcon2010 <dbl>, wdi_gdpcappppcon2011 <dbl>, fh_feb <int>,
## #   fh_ipolity2 <dbl>, test <dbl>, test2 <int>, copy_code <int>,
## #   pakistan <dbl>, is_this_pakistan <chr>, gle_pop_raw <dbl>,
## #   continent <chr>

qog_m %>%
  group_by(continent) %>%
  ungroup()

## # A tibble: 7,770 x 20
##    ccode cname       year ccodewb gle_pop wdi_expedu wdi_exphpu wdi_expmil
##    <int> <chr>      <int>   <int>   <dbl>      <dbl>      <dbl>      <dbl>
##  1     4 Afghanist  1981       4   15862       1.90         NA         NA
##  2     4 Afghanist  1982       4   15549       1.73         NA         NA
##  3     4 Afghanist  1983       4   15177      NA            NA         NA
##  4     4 Afghanist  1984       4   14814      NA            NA         NA
##  5     4 Afghanist  1985       4   14519      NA            NA         NA
##  6     4 Afghanist  1986       4   14300      NA            NA         NA
##  7     4 Afghanist  1987       4   14165      NA            NA         NA
##  8     4 Afghanist  1988       4   14162      NA            NA         NA
##  9     4 Afghanist  1989       4   14346      NA            NA         NA
## 10     4 Afghanist  1990       4   14754      NA            NA         NA
## # ... with 7,760 more rows, and 12 more variables: wdi_lifexp <dbl>,
## #   wdi_gdpcapcon2010 <dbl>, wdi_gdpcappppcon2011 <dbl>, fh_feb <int>,
## #   fh_ipolity2 <dbl>, test <dbl>, test2 <int>, copy_code <int>,
## #   pakistan <dbl>, is_this_pakistan <chr>, gle_pop_raw <dbl>,
## #   continent <chr>
…
